{
    "name": "Setting",
    "alias": "setting",
    "description": "",
    "keywords": [],
    "active": 1,
    "order": 3,
    "providers": [
        "Modules\\Setting\\Providers\\SettingServiceProvider"
    ],
    "aliases": {},
    "files": [],
    "requires": []
}
